----------------------------------------------------------------------------------------------------------------------------
06.04.2017 18:12:05 > Der Index war außerhalb des Arraybereichs.
Source: UnitTest
   bei Pressespiegel.Test.UnitTest_Register.Test_CreateUser() in C:\Users\Fabian\Documents\Source\Repos\pressespiegel\Pressespiegel\UnitTest\TestRegister.cs:Zeile 46.
----------------------------------------------------------------------------------------------------------------------------


--------------------------------------------------------------------------------------------------------------------------------------------------------------
06.04.2017 18:13:10 > Der Index war außerhalb des Arraybereichs.
Source: UnitTest
   bei Pressespiegel.Test.UnitTest_Register.Test_CreateUser() in C:\Users\Fabian\Documents\Source\Repos\pressespiegel\Pressespiegel\UnitTest\TestRegister.cs:Zeile 46.
--------------------------------------------------------------------------------------------------------------------------------------------------------------


--------------------------------------------------------------------------------------------------------------------------------------------------------------
06.04.2017 18:18:29 > Der Objektverweis wurde nicht auf eine Objektinstanz festgelegt.
Source: UnitTest
   bei Pressespiegel.Test.Mock_Register..ctor() in C:\Users\Fabian\Documents\Source\Repos\pressespiegel\Pressespiegel\UnitTest\TestRegister.cs:Zeile 17.
   bei Pressespiegel.Test.UnitTest_Register.Test_CreateUser() in C:\Users\Fabian\Documents\Source\Repos\pressespiegel\Pressespiegel\UnitTest\TestRegister.cs:Zeile 46.
--------------------------------------------------------------------------------------------------------------------------------------------------------------


--------------------------------------------------------------------------------------------------------------------------------------------------------------
06.04.2017 18:20:56 > Der Objektverweis wurde nicht auf eine Objektinstanz festgelegt.
Source: UnitTest
   bei Pressespiegel.Test.Mock_Register..ctor() in C:\Users\Fabian\Documents\Source\Repos\pressespiegel\Pressespiegel\UnitTest\TestRegister.cs:Zeile 17.
   bei Pressespiegel.Test.UnitTest_Register.Test_CreateUser() in C:\Users\Fabian\Documents\Source\Repos\pressespiegel\Pressespiegel\UnitTest\TestRegister.cs:Zeile 46.
--------------------------------------------------------------------------------------------------------------------------------------------------------------


--------------------------------------------------------------------------------------------------------------------------------------------------------------
06.04.2017 18:23:12 > Der Objektverweis wurde nicht auf eine Objektinstanz festgelegt.
Source: UnitTest
Custom Text: This is a custom text
   bei Pressespiegel.Test.Mock_Register..ctor() in C:\Users\Fabian\Documents\Source\Repos\pressespiegel\Pressespiegel\UnitTest\TestRegister.cs:Zeile 17.
   bei Pressespiegel.Test.UnitTest_Register.Test_CreateUser() in C:\Users\Fabian\Documents\Source\Repos\pressespiegel\Pressespiegel\UnitTest\TestRegister.cs:Zeile 46.--------------------------------------------------------------------------------------------------------------------------------------------------------------


--------------------------------------------------------------------------------------------------------------------------------------------------------------
06.04.2017 18:26:23 > Der Objektverweis wurde nicht auf eine Objektinstanz festgelegt.
Source: UnitTest
Custom Text: This is a custom text
   bei Pressespiegel.Test.Mock_Register..ctor() in C:\Users\Fabian\Documents\Source\Repos\pressespiegel\Pressespiegel\UnitTest\TestRegister.cs:Zeile 17.
   bei Pressespiegel.Test.UnitTest_Register.Test_CreateUser() in C:\Users\Fabian\Documents\Source\Repos\pressespiegel\Pressespiegel\UnitTest\TestRegister.cs:Zeile 46.
--------------------------------------------------------------------------------------------------------------------------------------------------------------


--------------------------------------------------------------------------------------------------------------------------------------------------------------
06.04.2017 18:26:23 > This is a custom text
--------------------------------------------------------------------------------------------------------------------------------------------------------------


--------------------------------------------------------------------------------------------------------------------------------------------------------------
06.04.2017 18:28:03 > Der Objektverweis wurde nicht auf eine Objektinstanz festgelegt.
Source: UnitTest
Custom Text: This is a custom text
   bei Pressespiegel.Test.Mock_Register..ctor() in C:\Users\Fabian\Documents\Source\Repos\pressespiegel\Pressespiegel\UnitTest\TestRegister.cs:Zeile 17.
   bei Pressespiegel.Test.UnitTest_Register.Test_CreateUser() in C:\Users\Fabian\Documents\Source\Repos\pressespiegel\Pressespiegel\UnitTest\TestRegister.cs:Zeile 46.
--------------------------------------------------------------------------------------------------------------------------------------------------------------


--------------------------------------------------------------------------------------------------------------------------------------------------------------
06.04.2017 18:28:03 > 
This is a custom text
--------------------------------------------------------------------------------------------------------------------------------------------------------------


--------------------------------------------------------------------------------------------------------------------------------------------------------------
06.04.2017 19:06:39 > Der Objektverweis wurde nicht auf eine Objektinstanz festgelegt.
Source: UnitTest
Additional Info: This is a custom text
   bei Pressespiegel.Test.Mock_Register..ctor() in C:\Users\Fabian\Documents\Source\Repos\pressespiegel\Pressespiegel\UnitTest\TestRegister.cs:Zeile 17.
   bei Pressespiegel.Test.UnitTest_Register.Test_CreateUser() in C:\Users\Fabian\Documents\Source\Repos\pressespiegel\Pressespiegel\UnitTest\TestRegister.cs:Zeile 46.
--------------------------------------------------------------------------------------------------------------------------------------------------------------


--------------------------------------------------------------------------------------------------------------------------------------------------------------
06.04.2017 19:06:39 > 
This is a custom text
--------------------------------------------------------------------------------------------------------------------------------------------------------------


--------------------------------------------------------------------------------------------------------------------------------------------------------------
09.04.2017 11:23:19 > Der Objektverweis wurde nicht auf eine Objektinstanz festgelegt.
Source: UnitTest
Additional Info: This is a custom text
   bei Pressespiegel.Test.Mock_Register..ctor() in C:\Users\Fabian\Documents\Source\Repos\pressespiegel\Pressespiegel\UnitTest\TestRegister.cs:Zeile 17.
   bei Pressespiegel.Test.UnitTest_Register.Test_CreateUser() in C:\Users\Fabian\Documents\Source\Repos\pressespiegel\Pressespiegel\UnitTest\TestRegister.cs:Zeile 46.
--------------------------------------------------------------------------------------------------------------------------------------------------------------


--------------------------------------------------------------------------------------------------------------------------------------------------------------
09.04.2017 11:23:19 > 
This is a custom text
--------------------------------------------------------------------------------------------------------------------------------------------------------------


--------------------------------------------------------------------------------------------------------------------------------------------------------------
09.04.2017 11:44:32 > Der Objektverweis wurde nicht auf eine Objektinstanz festgelegt.
Source: UnitTest
Additional Info: This is a custom text
   bei Pressespiegel.Test.Mock_Register..ctor() in C:\Users\Fabian\Documents\Source\Repos\pressespiegel\Pressespiegel\UnitTest\TestRegister.cs:Zeile 17.
   bei Pressespiegel.Test.UnitTest_Register.Test_CreateUser() in C:\Users\Fabian\Documents\Source\Repos\pressespiegel\Pressespiegel\UnitTest\TestRegister.cs:Zeile 46.
--------------------------------------------------------------------------------------------------------------------------------------------------------------


--------------------------------------------------------------------------------------------------------------------------------------------------------------
09.04.2017 11:44:32 > 
This is a custom text
--------------------------------------------------------------------------------------------------------------------------------------------------------------


--------------------------------------------------------------------------------------------------------------------------------------------------------------
09.04.2017 11:45:35 > Der Objektverweis wurde nicht auf eine Objektinstanz festgelegt.
Source: UnitTest
Additional Info: This is a custom text
   bei Pressespiegel.Test.Mock_Register..ctor() in C:\Users\Fabian\Documents\Source\Repos\pressespiegel\Pressespiegel\UnitTest\TestRegister.cs:Zeile 17.
   bei Pressespiegel.Test.UnitTest_Register.Test_CreateUser() in C:\Users\Fabian\Documents\Source\Repos\pressespiegel\Pressespiegel\UnitTest\TestRegister.cs:Zeile 46.
--------------------------------------------------------------------------------------------------------------------------------------------------------------


--------------------------------------------------------------------------------------------------------------------------------------------------------------
09.04.2017 11:45:35 > 
This is a custom text
--------------------------------------------------------------------------------------------------------------------------------------------------------------


